Place,Name,BirthDate,Sex,BirthYear,Age,Equipment,Division,BodyweightKg,WeightClassKg,Squat1Kg,Squat2Kg,Squat3Kg,Best3SquatKg,Bench1Kg,Bench2Kg,Bench3Kg,Best3BenchKg,Deadlift1Kg,Deadlift2Kg,Deadlift3Kg,Best3DeadliftKg,TotalKg,Event
1,Alison Benjamin,,F,,,Raw,FR-O,51.1,52,70,75,-77.5,75,37.5,40,-42.5,40,85,90,92.5,92.5,207.5,SBD
1,Julia Choromanska,,F,,,Raw,FR-O,56.6,57,-107.5,107.5,115,115,55,60,62.5,62.5,110,117.5,125,125,302.5,SBD
2,Seriera Lavasani,,F,,,Raw,FR-O,55.1,57,85,95,100,100,50,52.5,55,55,110,120,125,125,280,SBD
3,Alisha Bakrie,,F,,,Raw,FR-O,55.1,57,82.5,90,95,95,-42.5,42.5,45,45,105,112.5,117.5,117.5,257.5,SBD
4,Gracie Otto,,F,,,Raw,FR-O,55.5,57,72.5,-80,82.5,82.5,37.5,42.5,-47.5,42.5,95,105,110,110,235,SBD
1,Erica Leon,,F,,,Raw,FR-O,62.2,63,125,-135,140,140,60,-65,-65,60,150,157.5,165,165,365,SBD
2,Ruby Dutt,,F,,,Raw,FR-O,62.2,63,105,110,115,115,50,55,-57.5,55,130,145,-160,145,315,SBD
3,Diane Stockwell,,F,,,Raw,FR-O,62.7,63,105,110,-112.5,110,62.5,67.5,70,70,127.5,130,132.5,132.5,312.5,SBD
4,Yume Doncheva,,F,,,Raw,FR-O,62.1,63,90,97.5,105,105,52.5,57.5,-60,57.5,117.5,127.5,137.5,137.5,300,SBD
5,Haoyun Zhang,,F,,,Raw,FR-O,62.2,63,-100,-105,105,105,40,45,-50,45,105,-112.5,112.5,112.5,262.5,SBD
6,Shannon Nolan,,F,,,Raw,FR-O,62.4,63,75,82.5,90,90,47.5,52.5,-57.5,52.5,102.5,112.5,-117.5,112.5,255,SBD
DQ,Alexandra Anea,,F,,,Raw,FR-O,,63,,,,,,,,,,,,,,SBD
1,Karen Lai,,F,,,Raw,FR-O,68.7,69,152.5,160,165,165,92.5,97.5,-100,97.5,170,180,-185,180,442.5,SBD
2,Tomi Adebowale,,F,,,Raw,FR-O,66.5,69,125,130,140,140,55,57.5,60,60,142.5,152.5,160,160,360,SBD
3,Samantha Gurumurthy,,F,,,Raw,FR-O,68.6,69,107.5,115,122.5,122.5,55,60,-62.5,60,-142.5,142.5,155,155,337.5,SBD
4,Rashara Harewood,,F,,,Raw,FR-O,67.6,69,107.5,115,122.5,122.5,52.5,57.5,62.5,62.5,137.5,147.5,-155,147.5,332.5,SBD
5,Lara Oliver-Tomic,,F,,,Raw,FR-O,64.8,69,110,117.5,122.5,122.5,55,60,62.5,62.5,130,135,142.5,142.5,327.5,SBD
6,Jamila Dahoum,,F,,,Raw,FR-O,64.8,69,102.5,112.5,-117.5,112.5,62.5,67.5,-72.5,67.5,130,140,147.5,147.5,327.5,SBD
7,Emily Drablow,,F,,,Raw,FR-O,67.8,69,112.5,-120,120,120,50,55,-60,55,-147.5,-147.5,147.5,147.5,322.5,SBD
8,Rosephine Fernandes,,F,,,Raw,FR-O,63.3,69,110,117.5,-122.5,117.5,70,72.5,75,75,115,122.5,125,125,317.5,SBD
9,Elizabeth Martin de Bartolome,,F,,,Raw,FR-O,67.3,69,107.5,-115,115,115,45,50,-52.5,50,132.5,140,145,145,310,SBD
10,Kam Ozten,,F,,,Raw,FR-O,68.1,69,107.5,115,-120,115,50,55,57.5,57.5,112.5,120,127.5,127.5,300,SBD
11,Alexandra Dima,,F,,,Raw,FR-O,67.4,69,107.5,112.5,117.5,117.5,62.5,67.5,-72.5,67.5,110,-120,-125,110,295,SBD
12,Clare Yates,,F,,,Raw,FR-O,68,69,80,87.5,92.5,92.5,45,47.5,50,50,85,95,105,105,247.5,SBD
1,Maryam Agoro,,F,,,Raw,FR-O,72.1,76,140,147.5,-152.5,147.5,65,67.5,70,70,160,167.5,175,175,392.5,SBD
2,Elizabeth Welburn,,F,,,Raw,FR-O,73.7,76,107.5,115,120,120,62.5,-67.5,-67.5,62.5,165,172.5,180,180,362.5,SBD
3,Patricia Meana Saez,,F,,,Raw,FR-O,74.8,76,120,130,-135,130,75,-80,-80,75,145,157.5,-162.5,157.5,362.5,SBD
4,Laura Boyd,,F,,,Raw,FR-O,73.8,76,105,115,120,120,52.5,57.5,60,60,125,135,140,140,320,SBD
5,Synne Johnsson,,F,,,Raw,FR-O,74.7,76,115,122.5,130,130,45,50,-52.5,50,105,112.5,120,120,300,SBD
1,Liz Onen,,F,,,Raw,FR-O,82.4,84,130,-142.5,147.5,147.5,50,55,-57.5,55,170,180,-187.5,180,382.5,SBD
2,Lucy Gill,,F,,,Raw,FR-O,82.2,84,132.5,145,152.5,152.5,67.5,75,-80,75,127.5,137.5,147.5,147.5,375,SBD
3,Isi Avbulimen,,F,,,Raw,FR-O,83.7,84,107.5,115,122.5,122.5,52.5,57.5,62.5,62.5,130,140,150,150,335,SBD
4,Emma Jones #1,,F,,,Raw,FR-O,79.7,84,100,105,-110,105,52.5,55,-57.5,55,135,142.5,-145,142.5,302.5,SBD
5,Eniola Osikoya,,F,,,Raw,FR-O,82,84,107.5,116,-120,116,47.5,52.5,55,55,110,122.5,130,130,301,SBD
6,Valentina Minghetti,,F,,,Raw,FR-O,77.1,84,95,105,110,110,47.5,52.5,-57.5,52.5,112.5,117.5,122.5,122.5,285,SBD
1,Emily Dennis,,F,,,Raw,FR-O,147.1,84+,150,160,165,165,92.5,-100,-100,92.5,130,-140,-140,130,387.5,SBD
2,Nicole Rodney,,F,,,Raw,FR-O,100.6,84+,120,130,137.5,137.5,70,75,80,80,140,152.5,165,165,382.5,SBD
3,Julia Herrera Sawai,,F,,,Raw,FR-O,96,84+,110,120,127.5,127.5,52.5,57.5,62.5,62.5,142.5,155,165,165,355,SBD
4,Rachel Avbulimen,,F,,,Raw,FR-O,88.9,84+,92.5,-100,100,100,42.5,47.5,-50,47.5,125,132.5,140,140,287.5,SBD
1,Chlo Charlotte,,M,,,Raw,MR-O,62.2,66,67.5,77.5,85,85,47.5,52.5,57.5,57.5,95,105,115,115,257.5,SBD
DQ,Bless Kewte-Diangana,,M,,,Raw,MR-O,66,66,110,115,-120,115,-100,-100,-100,,180,185,190,190,,SBD
1,Simon Zhu #1,,M,,,Raw,MR-O,73.5,74,212.5,227.5,-235,227.5,140,150,-152.5,150,225,240,250,250,627.5,SBD
2,Ethan Satish,,M,,,Raw,MR-O,73.3,74,190,205,212.5,212.5,132.5,140,-145,140,250,265,-275,265,617.5,SBD
3,Ehis Izokun,,M,,,Raw,MR-O,72.2,74,200,212.5,217.5,217.5,117.5,122.5,127.5,127.5,220,235,255,255,600,SBD
4,Samuel Kaye,,M,,,Raw,MR-O,70.3,74,180,190,200,200,132.5,142.5,-150,142.5,230,240,255,255,597.5,SBD
5,Taiwo Ilo,,M,,,Raw,MR-O,71.3,74,210,-217.5,217.5,217.5,127.5,-135,-135,127.5,-240,250,-272.5,250,595,SBD
6,Joshua Chan,,M,,,Raw,MR-O,73.8,74,195,207.5,215,215,122.5,130,-132.5,130,207.5,222.5,-232.5,222.5,567.5,SBD
7,Jai Hindocha,,M,,,Raw,MR-O,72.8,74,170,185,195,195,-125,132.5,-137.5,132.5,-210,-225,225,225,552.5,SBD
8,Julio Nallamappanan de Cabo,,M,,,Raw,MR-O,72.1,74,172.5,182.5,187.5,187.5,100,-105,-105,100,240,255,-267.5,255,542.5,SBD
9,Haseeb Ali,,M,,,Raw,MR-O,70.5,74,145,152.5,-162.5,152.5,92.5,-100,-100,92.5,190,200,210,210,455,SBD
10,Dash Granite,,M,,,Raw,MR-O,71,74,130,137.5,142.5,142.5,105,110,115,115,147.5,155,160,160,417.5,SBD
11,Joel Sibley,,M,,,Raw,MR-O,72.2,74,140,152.5,-160,152.5,75,82.5,-87.5,82.5,150,162.5,170,170,405,SBD
12,Tom Cheffings,,M,,,Raw,MR-O,67.4,74,122.5,127.5,135,135,75,77.5,82.5,82.5,140,150,160,160,377.5,SBD
1,Emanuel Tan,,M,,,Raw,MR-O,81.3,83,197.5,207.5,215,215,115,120,125,125,245,260,-270,260,600,SBD
2,Craig Strong,,M,,,Raw,MR-O,81.8,83,190,200,207.5,207.5,135,-142.5,-142.5,135,230,240,-260,240,582.5,SBD
3,Nicholas Maleki,,M,,,Raw,MR-O,80.9,83,185,195,205,205,135,140,-142.5,140,215,225,235,235,580,SBD
4,Jack Veitch,,M,,,Raw,MR-O,82.3,83,172.5,187.5,-195,187.5,120,-125,127.5,127.5,220,-232.5,-232.5,220,535,SBD
5,Samuel Adebayo,,M,,,Raw,MR-O,75.6,83,155,170,180,180,125,132.5,-140,132.5,190,-205,205,205,517.5,SBD
6,David Baptiste,,M,,,Raw,MR-O,81,83,160,175,190,190,100,-110,-110,100,200,215,222.5,222.5,512.5,SBD
7,Alexander Morris,,M,,,Raw,MR-O,81.2,83,165,-175,185,185,-105,105,-112.5,105,215,-225,-240,215,505,SBD
8,Kamron Mir-Gajadhar,,M,,,Raw,MR-O,76,83,155,167.5,177.5,177.5,105,-110,110,110,200,212.5,-220,212.5,500,SBD
9,Will Fleet,,M,,,Raw,MR-O,75.9,83,185,205,-210,205,75,85,-100,85,180,200,205,205,495,SBD
10,Teo Valdes Vodanovic,,M,,,Raw,MR-O,81.5,83,170,180,190,190,95,100,-102.5,100,180,190,200,200,490,SBD
11,Stephen Ashcroft,,M,,,Raw,MR-O,79.7,83,145,155,162.5,162.5,87.5,95,-100,95,190,205,215,215,472.5,SBD
12,Jao Lok Chong,,M,,,Raw,MR-O,77.8,83,137.5,-147.5,-155,137.5,75,80,-85,80,170,180,190,190,407.5,SBD
DQ,Thomas Serrano Prince,,M,,,Raw,MR-O,79,83,155,165,-175,165,-120,-125,-125,,192.5,202.5,212.5,212.5,,SBD
1,Hendrick Famutimi,,M,,,Raw,MR-O,90.4,93,245,255,260,260,150,157.5,160,160,280,300,315,315,735,SBD
2,Joel Ofori,,M,,,Raw,MR-O,91.8,93,235,245,255,255,160,167.5,170,170,255,270,280,280,705,SBD
3,Denton Conteh,,M,,,Raw,MR-O,,93,225,235,-242.5,235,145,155,-157.5,155,270,300,-310,300,690,SBD
4,Oluseyi Otesanya,,M,,,Raw,MR-O,92.2,93,230,-245,245,245,120,130,140,140,275,-300,300,300,685,SBD
5,Billy Timmons,,M,,,Raw,MR-O,91.3,93,217.5,-230,235,235,-157.5,-167.5,170,170,245,260,270,270,675,SBD
6,Nathan Young,,M,,,Raw,MR-O,91.9,93,200,212.5,222.5,222.5,125,132.5,135,135,242.5,255,-267.5,255,612.5,SBD
7,James Boyle #1,,M,,,Raw,MR-O,92,93,207.5,220,225,225,132.5,140,-145,140,-222.5,235,245,245,610,SBD
8,Robert Rodney,,M,,,Raw,MR-O,89,93,-190,190,200,200,127.5,132.5,,132.5,260,-280,,260,592.5,SBD
9,Sameer Barakat,,M,,,Raw,MR-O,89,93,180,190,200,200,120,127.5,132.5,132.5,232.5,242.5,250,250,582.5,SBD
10,Justin Infante,,M,,,Raw,MR-O,89.5,93,200,215,220,220,110,120,125,125,220,237.5,-245,237.5,582.5,SBD
11,Harry Forsyth,,M,,,Raw,MR-O,92.3,93,155,165,-175,165,97.5,105,110,110,170,-180,180,180,455,SBD
1,Michael Pierides,,M,,,Raw,MR-O,103.4,105,265,-282.5,285,285,177.5,185,190,190,272.5,290,302.5,302.5,777.5,SBD
2,Mikey Herrera-Castro,,M,,,Raw,MR-O,99.8,105,225,235,247.5,247.5,152.5,160,-165,160,285,305,-310,305,712.5,SBD
3,Nicco Bargioni,,M,,,Raw,MR-O,99.4,105,222.5,232.5,240,240,127.5,135,140,140,255,267.5,275,275,655,SBD
4,Abullah Muhammad,,M,,,Raw,MR-O,100.2,105,220,230,-235,230,117.5,122.5,-125,122.5,235,245,250,250,602.5,SBD
5,Camilo Cardenas-Hurtado,,M,,,Raw,MR-O,103.4,105,175,-187.5,195,195,105,110,-115,110,205,225,-232.5,225,530,SBD
6,Kirubele Getachew,,M,,,Raw,MR-O,102.9,105,180,187.5,195,195,100,105,110,110,200,210,220,220,525,SBD
7,David Lewis #7,,M,,,Raw,MR-O,102.2,105,170,180,190,190,95,102.5,107.5,107.5,200,215,-230,215,512.5,SBD
8,Francis Taylor,,M,,,Raw,MR-O,104.5,105,125,135,-145,135,90,97.5,102.5,102.5,180,190,200,200,437.5,SBD
1,Rik Juriaans,,M,,,Raw,MR-O,105.5,120,-200,200,212.5,212.5,100,107.5,115,115,-212.5,225,-240,225,552.5,SBD
2,Harry Godwin,,M,,,Raw,MR-O,114.3,120,170,180,190,190,125,135,140,140,195,210,220,220,550,SBD
3,Declan Hillier,,M,,,Raw,MR-O,112.3,120,-190,-190,190,190,110,115,-120,115,220,230,240,240,545,SBD
4,Joshua Parslow,,M,,,Raw,MR-O,118.7,120,165,180,190,190,110,117.5,122.5,122.5,205,217.5,230,230,542.5,SBD
1,Asif Ahmed,,M,,,Raw,MR-O,160.4,120+,360,-380,380,380,-180,180,-200,180,270,300,-340,300,860,SBD
2,Zakariya Hussein,,M,,,Raw,MR-O,142,120+,245,260,265,265,155,165,-172.5,165,250,270,-290,270,700,SBD
3,Ariel Klausner-Stern,,M,,,Raw,MR-O,124.4,120+,205,215,225,225,-135,142.5,155,155,200,222.5,235,235,615,SBD
4,John Stevens #1,,M,,,Raw,MR-O,127.1,120+,215,227.5,237.5,237.5,117.5,127.5,-135,127.5,220,235,-250,235,600,SBD
